Day 3;2021.02.26
…
## データセットを縦長にする
k2 <- k %>%
  as.data.frame() %>%
  rowid_to_column("id") %>%
  pivot_longer(-id, names_to = "Qid") %>%
  mutate(Qid = factor(Qid)) %>%
  print()

## # A tibble: 200 x 3
##       id Qid   value
##    <int> <fct> <dbl>
##  1     1 V1        1
##  2     1 V2        1
##  3     1 V3        1
##  4     1 V4        1
##  5     1 V5        0
##  6     1 V6        0
##  7     1 V7        1
##  8     1 V8        1
##  9     1 V9        0
## 10     1 V10       1
## # … with 190 more rows
…
k4 <- k3 %>%
  as.data.frame() %>%
  rowid_to_column("id") %>%
  pivot_longer(-id, names_to = "Qid") %>%
  mutate(Qid = factor(Qid)) %>%
  na.omit() %>%
  print()

## # A tibble: 197 x 3
##       id Qid   value
##    <int> <fct> <dbl>
##  1     1 V1        1
##  2     1 V2        1
##  3     1 V3        1
##  4     1 V4        1
##  5     1 V5        0
##  6     1 V6        0
##  7     1 V7        1
##  8     1 V8        1
##  9     1 V9        0
## 10     1 V10       1
## # … with 187 more rows
…
